<?xml version="1.0" encoding="utf-8"?>
<!-- Generator: Adobe Illustrator 21.1.0, SVG Export Plug-In . SVG Version: 6.00 Build 0)  -->
<svg version="1.1" id="Слой_1" xmlns="http://www.w3.org/2000/svg" xmlns:xlink="http://www.w3.org/1999/xlink" x="0px" y="0px"
	 width="30px" height="30px" viewBox="0 0 30 30" style="enable-background:new 0 0 30 30;" xml:space="preserve">
<g>
	<line style="fill:none;stroke:#23234C;stroke-miterlimit:10;" x1="2.5" y1="2.5" x2="27.5" y2="27.5"/>
	<line style="fill:none;stroke:#23234C;stroke-miterlimit:10;" x1="27.5" y1="2.5" x2="2.5" y2="27.5"/>
</g>
</svg>
