<svg xmlns="http://www.w3.org/2000/svg" width="464.907" height="49.955" viewBox="0 0 464.907 49.955">
  <g transform="translate(-576.759 -8149.343)" opacity="0.1">
    <path d="M857.908,8167.2h48.2a3.929,3.929,0,0,0,3.928-3.928h0a3.929,3.929,0,0,0-3.928-3.928h-48.2a3.928,3.928,0,0,0-3.927,3.928h0A3.928,3.928,0,0,0,857.908,8167.2Z" fill="#525456"/>
    <path d="M839.54,8189.3h198.2a3.928,3.928,0,0,0,3.928-3.928h0a3.929,3.929,0,0,0-3.928-3.928H839.54a3.928,3.928,0,0,0-3.927,3.928h0A3.927,3.927,0,0,0,839.54,8189.3Z" fill="#525456"/>
    <path d="M580.687,8167.2H808.161a3.929,3.929,0,0,0,3.928-3.928h0a3.929,3.929,0,0,0-3.928-3.928H580.687a3.929,3.929,0,0,0-3.928,3.928h0A3.929,3.929,0,0,0,580.687,8167.2Z" fill="#525456"/>
    <path d="M831.56,8163.271a3.928,3.928,0,1,0,3.928-3.928A3.929,3.929,0,0,0,831.56,8163.271Z" fill="#525456"/>
    <path d="M812.826,8185.37a3.928,3.928,0,1,0,3.927-3.928A3.927,3.927,0,0,0,812.826,8185.37Z" fill="#525456"/>
  </g>
</svg>
