<svg xmlns="http://www.w3.org/2000/svg" width="340.275" height="345.8" viewBox="0 0 340.275 345.8">
  <g id="Quote01" transform="translate(-124.85 -908.003)">
    <g id="Illustrations" transform="translate(-11 -57)">
      <g id="Сгруппировать_18410" data-name="Сгруппировать 18410">
        <g id="Сгруппировать_10877" data-name="Сгруппировать 10877" transform="translate(372.278 1085.719) rotate(120)">


          <g id="Сгруппировать_10871" data-name="Сгруппировать 10871" transform="translate(118.134 25.464)">
            <rect id="Прямоугольник_3948" data-name="Прямоугольник 3948" width="5.514" height="4.267" transform="translate(0 0)" fill="#fff"/>
          </g>
          <g id="Сгруппировать_10872" data-name="Сгруппировать 10872" transform="translate(127.543 25.37)">
            <rect id="Прямоугольник_3949" data-name="Прямоугольник 3949" width="4.267" height="16.383" transform="translate(0 4.267) rotate(-89.672)" fill="#fff"/>
          </g>

          <g class="esgp-gear0" data-id="0">
          <g id="Сгруппировать_10874" data-name="Сгруппировать 10874" transform="translate(83.492 126.887)">
            <g id="Сгруппировать_10873" data-name="Сгруппировать 10873" transform="translate(0)">
              <path id="Контур_6040" data-name="Контур 6040" d="M40.387,17.55l-2.042-.03A17.189,17.189,0,0,0,36.3,12.463l1.489-1.448a2.32,2.32,0,0,0,.054-3.27l-2.434-2.51a2.327,2.327,0,0,0-3.276-.048L30.618,6.659a17.508,17.508,0,0,0-4.973-2.124l.03-2.131A2.322,2.322,0,0,0,23.4.054L21.336.024,19.9,0A2.329,2.329,0,0,0,17.55,2.279l-.03,2.137a17.314,17.314,0,0,0-5.032,1.976L11.015,4.878a2.314,2.314,0,0,0-3.27-.047L5.235,7.264a2.32,2.32,0,0,0-.048,3.27l1.448,1.489a17.326,17.326,0,0,0-2.2,5L2.4,16.992A2.321,2.321,0,0,0,.054,19.277L0,22.766a2.32,2.32,0,0,0,2.279,2.351l1.988.03A17.162,17.162,0,0,0,6.273,30.3L4.878,31.651a2.321,2.321,0,0,0-.047,3.276l2.433,2.5a2.315,2.315,0,0,0,3.27.048l1.371-1.33a17.238,17.238,0,0,0,5.117,2.225l-.03,1.894a2.32,2.32,0,0,0,2.284,2.344l2.059.03,1.43.024a2.321,2.321,0,0,0,2.351-2.279l.024-1.894a17.114,17.114,0,0,0,5.181-2.071l1.329,1.37a2.332,2.332,0,0,0,3.276.048l2.5-2.434a2.322,2.322,0,0,0,.048-3.276l-1.353-1.395a17.381,17.381,0,0,0,2.16-5.092l1.983.03a2.321,2.321,0,0,0,2.344-2.28l.054-3.5A2.329,2.329,0,0,0,40.387,17.55Zm-19.051,15.1H21.17a11.194,11.194,0,0,1,.166-22.386h.16a11.194,11.194,0,0,1-.16,22.386Z" fill="#ffa300"/>
            </g>
          </g>
          </g>

          <g class="esgp-gear0" data-id="1">
          <g id="Сгруппировать_10866" data-name="Сгруппировать 10866" transform="translate(118.276 83.763)">
            <g id="Сгруппировать_10865" data-name="Сгруппировать 10865" transform="translate(0)">
              <path id="Контур_6038" data-name="Контур 6038" d="M72.586,31.541l-3.67-.053a30.912,30.912,0,0,0-3.68-9.088l2.678-2.6a4.17,4.17,0,0,0,.1-5.877L63.637,9.408a4.181,4.181,0,0,0-5.888-.086l-2.721,2.645A31.405,31.405,0,0,0,46.09,8.15l.054-3.83A4.173,4.173,0,0,0,42.048.1l-3.7-.053L35.765,0a4.186,4.186,0,0,0-4.224,4.1l-.054,3.84a31.133,31.133,0,0,0-9.045,3.552L19.8,8.768a4.16,4.16,0,0,0-5.878-.084L9.408,13.057a4.166,4.166,0,0,0-.086,5.876l2.6,2.677a31.128,31.128,0,0,0-3.947,8.982L4.32,30.539A4.175,4.175,0,0,0,.1,34.646L0,40.917a4.172,4.172,0,0,0,4.1,4.224l3.573.054a30.837,30.837,0,0,0,3.606,9.258L8.768,56.885a4.172,4.172,0,0,0-.085,5.888l4.372,4.5a4.159,4.159,0,0,0,5.878.085L21.4,64.97a31.015,31.015,0,0,0,9.2,4l-.054,3.4a4.172,4.172,0,0,0,4.106,4.213l3.7.054,2.571.042a4.172,4.172,0,0,0,4.224-4.1l.042-3.4A30.751,30.751,0,0,0,54.5,65.461l2.389,2.464a4.192,4.192,0,0,0,5.888.086l4.5-4.373a4.172,4.172,0,0,0,.086-5.888l-2.432-2.507A31.3,31.3,0,0,0,68.81,46.09l3.562.054a4.171,4.171,0,0,0,4.213-4.1l.1-6.283A4.186,4.186,0,0,0,72.586,31.541ZM38.346,58.677h-.3a20.118,20.118,0,0,1,.3-40.234h.288a20.118,20.118,0,0,1-.288,40.234Z" fill="#1a9ce3"/>
            </g>
          </g>
          </g>

          <g class="esgp-gear0" data-id="2">
          <g id="Сгруппировать_10875" data-name="Сгруппировать 10875" transform="translate(-25.497 67.837)">
            <g id="Сгруппировать_10873-2" data-name="Сгруппировать 10873" transform="translate(0)">
              <path id="Контур_6040-2" data-name="Контур 6040" d="M40.387,17.55l-2.042-.03A17.189,17.189,0,0,0,36.3,12.463l1.489-1.448a2.32,2.32,0,0,0,.054-3.27l-2.434-2.51a2.327,2.327,0,0,0-3.276-.048L30.618,6.659a17.508,17.508,0,0,0-4.973-2.124l.03-2.131A2.322,2.322,0,0,0,23.4.054L21.336.024,19.9,0A2.329,2.329,0,0,0,17.55,2.279l-.03,2.137a17.314,17.314,0,0,0-5.032,1.976L11.015,4.878a2.314,2.314,0,0,0-3.27-.047L5.235,7.264a2.32,2.32,0,0,0-.048,3.27l1.448,1.489a17.326,17.326,0,0,0-2.2,5L2.4,16.992A2.321,2.321,0,0,0,.054,19.277L0,22.766a2.32,2.32,0,0,0,2.279,2.351l1.988.03A17.162,17.162,0,0,0,6.273,30.3L4.878,31.651a2.321,2.321,0,0,0-.047,3.276l2.433,2.5a2.315,2.315,0,0,0,3.27.048l1.371-1.33a17.238,17.238,0,0,0,5.117,2.225l-.03,1.894a2.32,2.32,0,0,0,2.284,2.344l2.059.03,1.43.024a2.321,2.321,0,0,0,2.351-2.279l.024-1.894a17.114,17.114,0,0,0,5.181-2.071l1.329,1.37a2.332,2.332,0,0,0,3.276.048l2.5-2.434a2.322,2.322,0,0,0,.048-3.276l-1.353-1.395a17.381,17.381,0,0,0,2.16-5.092l1.983.03a2.321,2.321,0,0,0,2.344-2.28l.054-3.5A2.329,2.329,0,0,0,40.387,17.55Zm-19.051,15.1H21.17a11.194,11.194,0,0,1,.166-22.386h.16a11.194,11.194,0,0,1-.16,22.386Z" fill="#0060a1"/>
            </g>
          </g>
          </g>

        </g>
        <g id="Сгруппировать_10876" data-name="Сгруппировать 10876" transform="translate(138.603 965.003)">
          <path id="Контур_5589" data-name="Контур 5589" d="M174.391,77.173l-4.977-5.94a3.107,3.107,0,0,1-.22-3.444l1.849-3.245a3.1,3.1,0,0,1,3.068-1.578l7.648,1.23a2.41,2.41,0,0,0,2.654-1.733l1.218-4.681a2.41,2.41,0,0,0-1.473-2.807l-7.286-2.658a3.107,3.107,0,0,1-1.913-2.873l-.027-3.729a3.109,3.109,0,0,1,1.872-2.9l7.248-2.762a2.41,2.41,0,0,0,1.432-2.828L184.2,32.563a2.411,2.411,0,0,0-2.679-1.695l-7.629,1.341a3.1,3.1,0,0,1-3.09-1.533l-1.9-3.218a3.109,3.109,0,0,1,.17-3.448L173.965,18a2.41,2.41,0,0,0-.174-3.164l-3.445-3.4a2.411,2.411,0,0,0-3.167-.128l-5.939,4.977a3.109,3.109,0,0,1-3.445.22l-3.244-1.849a3.1,3.1,0,0,1-1.578-3.068L154.2,3.942a2.41,2.41,0,0,0-1.733-2.653L147.789.071a2.409,2.409,0,0,0-2.806,1.473L142.325,8.83a3.108,3.108,0,0,1-2.873,1.913l-3.729.026a3.106,3.106,0,0,1-2.9-1.871L130.06,1.651A2.409,2.409,0,0,0,127.233.219L122.57,1.5a2.41,2.41,0,0,0-1.694,2.679l1.34,7.629a3.1,3.1,0,0,1-1.533,3.09l-3.218,1.9a3.108,3.108,0,0,1-3.447-.17l-6.011-4.891a2.41,2.41,0,0,0-3.164.174l-3.4,3.445a2.41,2.41,0,0,0-.128,3.166l4.978,5.94a3.109,3.109,0,0,1,.22,3.444l-1.849,3.245a3.1,3.1,0,0,1-3.068,1.578L93.95,31.5A2.41,2.41,0,0,0,91.3,33.231l-1.219,4.682a2.411,2.411,0,0,0,1.473,2.806l7.287,2.658a3.109,3.109,0,0,1,1.912,2.873l.027,3.729a3.108,3.108,0,0,1-1.871,2.9l-7.247,2.763a2.411,2.411,0,0,0-1.433,2.827l1.286,4.664a2.41,2.41,0,0,0,2.678,1.694l7.63-1.34a3.1,3.1,0,0,1,3.09,1.533l1.9,3.218a3.108,3.108,0,0,1-.17,3.447L101.744,77.7a2.41,2.41,0,0,0,.174,3.165l3.445,3.4a2.41,2.41,0,0,0,3.166.129l5.94-4.978a3.109,3.109,0,0,1,3.444-.22l3.245,1.849a3.1,3.1,0,0,1,1.578,3.068l-1.23,7.648a2.409,2.409,0,0,0,1.733,2.653l4.681,1.219a2.41,2.41,0,0,0,2.806-1.473l2.658-7.287a3.107,3.107,0,0,1,2.873-1.912l3.729-.027a3.108,3.108,0,0,1,2.9,1.871l2.762,7.248a2.411,2.411,0,0,0,2.828,1.433l4.663-1.286a2.41,2.41,0,0,0,1.695-2.678l-1.341-7.63a3.1,3.1,0,0,1,1.533-3.09l3.218-1.9a3.109,3.109,0,0,1,3.448.17l6.011,4.891a2.409,2.409,0,0,0,3.164-.174l3.4-3.445A2.41,2.41,0,0,0,174.391,77.173ZM127.253,58.6a15.1,15.1,0,1,1,21.358-.153A15.1,15.1,0,0,1,127.253,58.6Zm-49.963,73.6q.973-.987,1.863-2.023l6.151,3.378,4.21-6.105-5.336-4.542a40.861,40.861,0,0,0,2.288-5l6.925,1.069,1.868-7.177-6.576-2.445a41.35,41.35,0,0,0,.438-5.479L96,102.513l-.7-7.383-7.012-.049a41.113,41.113,0,0,0-1.459-5.3l5.994-3.634-3.183-6.7-6.6,2.351a40.956,40.956,0,0,0-3.191-4.479l4.393-5.469-5.282-5.206-5.4,4.471a41.053,41.053,0,0,0-4.524-3.126l2.256-6.636-6.744-3.086L61,64.313a41.049,41.049,0,0,0-5.323-1.382l-.15-7.01-7.392-.593-1.267,6.9a41.172,41.172,0,0,0-5.471.517l-2.54-6.54-7.149,1.971,1.168,6.909a40.749,40.749,0,0,0-4.969,2.36l-4.618-5.27-6.044,4.3,3.466,6.1q-1.02.907-2,1.892T16.852,76.49L10.7,73.112l-4.21,6.105,5.336,4.542a40.776,40.776,0,0,0-2.288,5l-6.925-1.07L.745,94.87l6.576,2.445a41.469,41.469,0,0,0-.438,5.478L0,104.16l.7,7.384,7.012.048a41.163,41.163,0,0,0,1.459,5.3l-5.994,3.633,3.183,6.7,6.6-2.351a41.035,41.035,0,0,0,3.191,4.479l-4.393,5.469,5.282,5.206,5.4-4.471a41.059,41.059,0,0,0,4.524,3.126l-2.256,6.636,6.744,3.086,3.547-6.045a41.159,41.159,0,0,0,5.323,1.381l.15,7.011,7.393.593,1.267-6.9a41.291,41.291,0,0,0,5.471-.517l2.54,6.54L64.3,148.5l-1.169-6.909a40.848,40.848,0,0,0,4.97-2.36l4.618,5.27,6.044-4.3-3.466-6.1Q76.315,133.19,77.29,132.206ZM75.932,78.789A37.025,37.025,0,0,1,85.1,100.8l-18.1.13A19.049,19.049,0,0,0,63.206,91.7ZM72.437,75.31,59.729,88.2a19.05,19.05,0,0,0-9.2-3.845l-.131-18.13A37.027,37.027,0,0,1,72.437,75.31ZM45.463,66.241l.13,18.1a19.049,19.049,0,0,0-9.227,3.789L23.455,75.407A37.034,37.034,0,0,1,45.463,66.241ZM10.9,100.945A37.022,37.022,0,0,1,19.976,78.9L32.869,91.61a19.042,19.042,0,0,0-3.844,9.2Zm9.178,26.938a37.026,37.026,0,0,1-9.165-22.007l18.1-.13a19.053,19.053,0,0,0,3.789,9.227ZM39.482,94.938a11.963,11.963,0,1,1,.122,16.918A11.963,11.963,0,0,1,39.482,94.938ZM23.567,131.363l12.709-12.893a19.044,19.044,0,0,0,9.2,3.845l.131,18.13A37.028,37.028,0,0,1,23.567,131.363Zm26.974,9.069-.13-18.1a19.05,19.05,0,0,0,9.227-3.789l12.911,12.726A37.028,37.028,0,0,1,50.541,140.431Zm12.595-25.368a19.049,19.049,0,0,0,3.844-9.2l18.13-.131a37.025,37.025,0,0,1-9.081,22.043Zm194.2,6.231q.975-.988,1.867-2.027l6.166,3.386,4.219-6.12-5.348-4.551a40.791,40.791,0,0,0,2.293-5.014l6.942,1.072,1.872-7.194-6.591-2.452a41.534,41.534,0,0,0,.439-5.492l6.9-1.369-.7-7.4-7.028-.049a41.194,41.194,0,0,0-1.462-5.315l6.007-3.642-3.19-6.714L263.1,70.769a41.126,41.126,0,0,0-3.2-4.489l4.4-5.481-5.294-5.218-5.418,4.481a41.022,41.022,0,0,0-4.535-3.133l2.261-6.652-6.759-3.092-3.555,6.059a41.122,41.122,0,0,0-5.335-1.385l-.15-7.027-7.41-.595-1.269,6.918a41.489,41.489,0,0,0-5.485.518l-2.546-6.555-7.167,1.976,1.172,6.925a40.837,40.837,0,0,0-4.981,2.366L203.208,51.1,197.15,55.41l3.474,6.116q-1.023.909-2,1.9t-1.867,2.028l-6.165-3.386-4.22,6.12,5.348,4.552a40.968,40.968,0,0,0-2.293,5.014l-6.942-1.072-1.872,7.194,6.591,2.451a41.425,41.425,0,0,0-.44,5.491l-6.9,1.369.7,7.4,7.028.049a41.234,41.234,0,0,0,1.462,5.315l-6.007,3.641,3.19,6.715,6.618-2.357a41.038,41.038,0,0,0,3.2,4.489l-4.4,5.481,5.294,5.218,5.417-4.481a41.082,41.082,0,0,0,4.535,3.133l-2.261,6.652,6.759,3.093,3.554-6.06a41.24,41.24,0,0,0,5.335,1.385l.151,7.027,7.409.595,1.27-6.918a41.5,41.5,0,0,0,5.485-.519l2.546,6.555,7.166-1.975-1.171-6.926a40.918,40.918,0,0,0,4.981-2.365l4.628,5.282,6.058-4.307-3.474-6.116Q256.358,122.28,257.335,121.294Zm-1.361-53.539a37.114,37.114,0,0,1,9.186,22.058l-18.143.131a19.1,19.1,0,0,0-3.8-9.248Zm-3.5-3.487L239.733,77.19a19.09,19.09,0,0,0-9.225-3.854l-.131-18.171A37.114,37.114,0,0,1,252.471,64.267Zm-27.037-9.09.131,18.144a19.1,19.1,0,0,0-9.248,3.8l-12.94-12.756A37.114,37.114,0,0,1,225.434,55.177ZM190.786,89.96a37.111,37.111,0,0,1,9.1-22.094L212.811,80.6a19.084,19.084,0,0,0-3.853,9.226Zm9.2,27A37.118,37.118,0,0,1,190.8,94.9l18.144-.131a19.1,19.1,0,0,0,3.8,9.248ZM219.439,83.94a11.991,11.991,0,1,1,.122,16.958A11.992,11.992,0,0,1,219.439,83.94Zm-15.951,36.509,12.738-12.923a19.092,19.092,0,0,0,9.226,3.854l.131,18.171A37.11,37.11,0,0,1,203.488,120.449Zm27.036,9.089-.131-18.143a19.1,19.1,0,0,0,9.248-3.8l12.941,12.756A37.118,37.118,0,0,1,230.524,129.538Zm12.623-25.427A19.089,19.089,0,0,0,247,94.886l18.171-.131a37.113,37.113,0,0,1-9.1,22.094Zm-60.332,83.864-2.564-2.528a51.914,51.914,0,0,0,3.769-4.975l3.125,1.775a1.8,1.8,0,0,0,2.448-.675l1.863-3.28a1.8,1.8,0,0,0-.676-2.448l-3.12-1.771a51.546,51.546,0,0,0,2.346-5.786l3.474.9a1.8,1.8,0,0,0,2.19-1.285l.95-3.65a1.8,1.8,0,0,0-1.285-2.19l-3.479-.906a52.267,52.267,0,0,0,.765-6.194l3.6-.026A1.8,1.8,0,0,0,198,153.133l-.027-3.771a1.8,1.8,0,0,0-1.809-1.782l-3.6.026a52.332,52.332,0,0,0-.855-6.182l3.466-.955a1.8,1.8,0,0,0,1.253-2.208l-1-3.636a1.8,1.8,0,0,0-2.208-1.253l-3.461.954a51.6,51.6,0,0,0-2.429-5.751l3.095-1.817a1.8,1.8,0,0,0,.639-2.457l-1.909-3.252a1.8,1.8,0,0,0-2.458-.64l-3.1,1.819a51.957,51.957,0,0,0-3.84-4.92l2.528-2.564a1.8,1.8,0,0,0-.019-2.539l-2.685-2.647a1.8,1.8,0,0,0-2.539.018l-2.528,2.564a52.032,52.032,0,0,0-4.975-3.769l1.775-3.125a1.8,1.8,0,0,0-.675-2.448l-3.28-1.862a1.8,1.8,0,0,0-2.448.675l-1.771,3.12a51.678,51.678,0,0,0-5.786-2.346l.9-3.474a1.8,1.8,0,0,0-1.285-2.19l-3.65-.95a1.8,1.8,0,0,0-2.19,1.286l-.906,3.479a52.111,52.111,0,0,0-6.194-.766l-.026-3.6a1.8,1.8,0,0,0-1.809-1.782l-3.771.027a1.8,1.8,0,0,0-1.782,1.809l.026,3.6a52.053,52.053,0,0,0-6.182.855l-.955-3.466a1.8,1.8,0,0,0-2.208-1.254l-3.636,1a1.8,1.8,0,0,0-1.253,2.208l.954,3.461a51.6,51.6,0,0,0-5.751,2.429l-1.816-3.095a1.8,1.8,0,0,0-2.458-.64l-3.252,1.91a1.8,1.8,0,0,0-.64,2.457l1.82,3.1a52.025,52.025,0,0,0-4.92,3.84l-2.564-2.527a1.8,1.8,0,0,0-2.539.018L98.624,112.8a1.8,1.8,0,0,0,.018,2.539l2.564,2.528a52,52,0,0,0-3.769,4.974l-3.126-1.774a1.8,1.8,0,0,0-2.448.675L90,125.026a1.8,1.8,0,0,0,.675,2.448l3.12,1.772a51.712,51.712,0,0,0-2.346,5.785l-3.474-.9a1.8,1.8,0,0,0-2.19,1.285l-.949,3.65a1.8,1.8,0,0,0,1.285,2.19l3.479.9a52.13,52.13,0,0,0-.766,6.195l-3.6.026a1.8,1.8,0,0,0-1.782,1.809l.027,3.771a1.8,1.8,0,0,0,1.809,1.783l3.6-.026a52.034,52.034,0,0,0,.855,6.183l-3.466.955a1.8,1.8,0,0,0-1.254,2.208l1,3.635a1.8,1.8,0,0,0,2.208,1.254L91.7,169a51.722,51.722,0,0,0,2.429,5.751l-3.095,1.816a1.8,1.8,0,0,0-.64,2.458l1.91,3.252a1.8,1.8,0,0,0,2.457.639l3.1-1.819a52.037,52.037,0,0,0,3.84,4.92l-2.527,2.564a1.8,1.8,0,0,0,.018,2.539l2.686,2.647a1.8,1.8,0,0,0,2.539-.019l2.528-2.564a51.989,51.989,0,0,0,4.974,3.769l-1.774,3.125a1.8,1.8,0,0,0,.675,2.448l3.279,1.863a1.8,1.8,0,0,0,2.448-.675l1.772-3.12a51.681,51.681,0,0,0,5.786,2.346l-.9,3.474a1.8,1.8,0,0,0,1.285,2.19l3.65.95a1.8,1.8,0,0,0,2.19-1.285l.905-3.479a52.271,52.271,0,0,0,6.194.765l.026,3.6a1.8,1.8,0,0,0,1.809,1.783l3.771-.028a1.8,1.8,0,0,0,1.783-1.808l-.026-3.6a52.342,52.342,0,0,0,6.182-.855l.956,3.466a1.8,1.8,0,0,0,2.208,1.253l3.635-1a1.8,1.8,0,0,0,1.254-2.208l-.954-3.461a51.6,51.6,0,0,0,5.751-2.429l1.816,3.095a1.8,1.8,0,0,0,2.458.64l3.252-1.909a1.8,1.8,0,0,0,.639-2.458l-1.819-3.1a51.921,51.921,0,0,0,4.92-3.84l2.564,2.528a1.8,1.8,0,0,0,2.539-.019l2.647-2.685A1.8,1.8,0,0,0,182.816,187.975Zm-64.971-74.069c14.6-8.076,30.238-8.222,45.062-.2,3.475,1.881,4.049,5.72,1.275,8.534l-18.462,18.73a7.2,7.2,0,0,1-10.158.073l-18.887-18.618C113.861,119.652,114.388,115.819,117.845,113.906Zm-5.993,61.8c-2.773,2.814-6.606,2.287-8.518-1.17-8.077-14.6-8.222-30.239-.2-45.062,1.881-3.475,5.72-4.048,8.534-1.275l18.73,18.462a7.2,7.2,0,0,1,.073,10.158Zm26.293-21.429a3.681,3.681,0,1,1,5.206-.037A3.681,3.681,0,0,1,138.145,154.281Zm31.816-27.034c2.773-2.814,6.606-2.287,8.518,1.17,8.076,14.6,8.222,30.239.2,45.062-1.88,3.475-5.72,4.049-8.534,1.276l-18.73-18.462a7.2,7.2,0,0,1-.073-10.158Zm-5.993,61.8c-14.6,8.076-30.239,8.222-45.062.2-3.474-1.88-4.048-5.72-1.274-8.533l18.462-18.73a7.2,7.2,0,0,1,10.157-.073l18.887,18.617C167.952,183.307,167.425,187.14,163.968,189.052Z" transform="translate(337.522 134.3) rotate(130)" fill="#fff"/>
        </g>
      </g>
<!--       <path id="Контур_6041" data-name="Контур 6041" d="M10.143,21.289A11.191,11.191,0,0,0,21.17,32.648h.166v9.994l-2.059-.03a2.32,2.32,0,0,1-2.284-2.344l.03-1.894a17.238,17.238,0,0,1-5.117-2.225l-1.371,1.33a2.315,2.315,0,0,1-3.27-.048l-2.433-2.5a2.321,2.321,0,0,1,.047-3.276L6.273,30.3a17.162,17.162,0,0,1-2.006-5.151l-1.988-.03A2.32,2.32,0,0,1,0,22.766l.054-3.489A2.321,2.321,0,0,1,2.4,16.992l2.036.029a17.326,17.326,0,0,1,2.2-5L5.187,10.534a2.32,2.32,0,0,1,.048-3.27l2.51-2.433a2.314,2.314,0,0,1,3.27.047l1.472,1.513A17.314,17.314,0,0,1,17.52,4.416l.03-2.137A2.329,2.329,0,0,1,19.9,0l1.436.024V10.261A11.19,11.19,0,0,0,10.143,21.289Z" transform="translate(220.645 1094.582) rotate(120)" fill="#231f20" opacity="0.2"/> -->
    </g>
  </g>
</svg>
