<svg data-name="country_list" xmlns="http://www.w3.org/2000/svg" width="1103" height="648" viewBox="0 0 1103 648">
  <g id="Layer_3" data-name="Layer 3">
    <rect x="-8" y="-12.17" width="1134.78" height="673.04" style="fill: #fff"/>
  </g>
  <rect id="Rectangle_8882-2" data-name="Rectangle 8882-2" x="9" y="6" width="1085" height="630" rx="5" style="fill: #fff"/>
  <g id="Group_12780" data-name="Group 12780" style="opacity: 0.999000012874603">
    <g id="Group_50" data-name="Group 50" style="opacity: 0.483000010251999">
      <line id="Line_5" data-name="Line 5" x1="55" y1="170" x2="1049" y2="170" style="fill: none;stroke: #8a8c8e;stroke-miterlimit: 10"/>
      <line id="Line_6" data-name="Line 6" x1="56" y1="241" x2="1050" y2="241" style="fill: none;stroke: #8a8c8e;stroke-miterlimit: 10"/>
      <line id="Line_8" data-name="Line 8" x1="56" y1="106" x2="1050" y2="106" style="fill: none;stroke: #8a8c8e;stroke-miterlimit: 10"/>
      <line id="Line_9" data-name="Line 9" x1="55" y1="308" x2="1049" y2="308" style="fill: none;stroke: #8a8c8e;stroke-miterlimit: 10"/>
      <line id="Line_10" data-name="Line 10" x1="56" y1="376" x2="1050" y2="376" style="fill: none;stroke: #8a8c8e;stroke-miterlimit: 10"/>
      <line id="Line_11" data-name="Line 11" x1="56" y1="441" x2="1050" y2="441" style="fill: none;stroke: #8a8c8e;stroke-miterlimit: 10"/>
      <line id="Line_18" data-name="Line 18" x1="56" y1="510" x2="1050" y2="510" style="fill: none;stroke: #8a8c8e;stroke-miterlimit: 10"/>
    </g>
    <line id="Line_17" data-name="Line 17" x1="55.56" y1="576.44" x2="1062.02" y2="576.44" style="fill: none;stroke: #707070"/>
    <g id="_15" data-name=" 15" style="isolation: isolate">
      <text transform="translate(49.84 591)" style="isolation: isolate;font-size: 10px;fill: #8a8c8e;font-family: OpenSans-Regular">15</text>
    </g>
    <g id="_25" data-name=" 25" style="isolation: isolate">
      <text transform="translate(167.26 591)" style="isolation: isolate;font-size: 10px;fill: #6e6e72;font-family: OpenSans-Regular">25</text>
    </g>
    <g id="_35" data-name=" 35" style="isolation: isolate">
      <text transform="translate(285.44 591)" style="isolation: isolate;font-size: 10px;fill: #6e6e72;font-family: OpenSans-Regular">35</text>
    </g>
    <g id="_45" data-name=" 45" style="isolation: isolate">
      <text transform="translate(403.62 591)" style="isolation: isolate;font-size: 10px;fill: #6e6e72;font-family: OpenSans-Regular">45</text>
    </g>
    <g id="_55" data-name=" 55" style="isolation: isolate">
      <text transform="translate(521.81 591)" style="isolation: isolate;font-size: 10px;fill: #6e6e72;font-family: OpenSans-Regular">55</text>
    </g>
    <g id="_65" data-name=" 65" style="isolation: isolate">
      <text transform="translate(639.99 591)" style="isolation: isolate;font-size: 10px;fill: #6e6e72;font-family: OpenSans-Regular">65</text>
    </g>
    <g id="_75" data-name=" 75" style="isolation: isolate">
      <text transform="translate(758.17 591)" style="isolation: isolate;font-size: 10px;fill: #6e6e72;font-family: OpenSans-Regular">75</text>
    </g>
    <g id="_85" data-name=" 85" style="isolation: isolate">
      <text transform="translate(876.36 591)" style="isolation: isolate;font-size: 10px;fill: #6e6e72;font-family: OpenSans-Regular">85</text>
    </g>
    <g id="_95" data-name=" 95" style="isolation: isolate">
      <text transform="translate(994.54 591)" style="isolation: isolate;font-size: 10px;fill: #6e6e72;font-family: OpenSans-Regular">95</text>
    </g>
  </g>
  <g id="ESGP_score" data-name="ESGP score" style="isolation: isolate">
    <g style="isolation: isolate">
      <path d="M518.73,618.46h-6.16V607.75h6.16v1.87h-3.89V612h3.62v1.86h-3.62v2.76h3.89Z" style="fill: #141e50"/>
      <path d="M527.29,615.49a2.76,2.76,0,0,1-1,2.28,4.54,4.54,0,0,1-2.91.84,6.82,6.82,0,0,1-3-.65v-2.1a13.66,13.66,0,0,0,1.83.68,5.49,5.49,0,0,0,1.38.19,1.92,1.92,0,0,0,1.14-.28,1,1,0,0,0,.4-.85,1,1,0,0,0-.17-.56,2,2,0,0,0-.52-.47,13.11,13.11,0,0,0-1.39-.73,7,7,0,0,1-1.47-.88,3.35,3.35,0,0,1-.78-1,3.07,3.07,0,0,1,.67-3.56,4,4,0,0,1,2.66-.81,6.3,6.3,0,0,1,1.59.2,10.48,10.48,0,0,1,1.59.56l-.73,1.76a11.62,11.62,0,0,0-1.42-.49,4.74,4.74,0,0,0-1.1-.14,1.46,1.46,0,0,0-1,.3,1.05,1.05,0,0,0-.21,1.31,1.44,1.44,0,0,0,.45.43,13.27,13.27,0,0,0,1.43.75,5.67,5.67,0,0,1,2.06,1.44A2.82,2.82,0,0,1,527.29,615.49Z" style="fill: #141e50"/>
      <path d="M533.29,612.45h4.25V618a11.33,11.33,0,0,1-1.94.47,12.76,12.76,0,0,1-1.87.14,4.72,4.72,0,0,1-3.7-1.43,5.91,5.91,0,0,1-1.28-4.09,5.4,5.4,0,0,1,1.49-4,5.62,5.62,0,0,1,4.11-1.45,8,8,0,0,1,3.18.66l-.76,1.82a5.38,5.38,0,0,0-2.44-.59,3,3,0,0,0-2.35,1,3.85,3.85,0,0,0-.89,2.66,4.3,4.3,0,0,0,.71,2.66,2.49,2.49,0,0,0,2.08.92,7.12,7.12,0,0,0,1.44-.15v-2.23h-2Z" style="fill: #141e50"/>
      <path d="M547.49,611.09a3.28,3.28,0,0,1-1.08,2.65,4.61,4.61,0,0,1-3.07.91h-1v3.81h-2.27V607.75h3.42a4.52,4.52,0,0,1,3,.84A3.06,3.06,0,0,1,547.49,611.09Zm-5.13,1.7h.75a2.47,2.47,0,0,0,1.57-.41,1.72,1.72,0,0,0,.08-2.38,2,2,0,0,0-1.36-.38h-1Z" style="fill: #141e50"/>
      <path d="M558.94,616a2.26,2.26,0,0,1-.87,1.92,4.32,4.32,0,0,1-2.62.66,8.28,8.28,0,0,1-1.52-.12,5.41,5.41,0,0,1-1.18-.36v-1.84a7.89,7.89,0,0,0,1.4.49,5.8,5.8,0,0,0,1.37.2c.81,0,1.22-.24,1.22-.71a.59.59,0,0,0-.16-.43,2.32,2.32,0,0,0-.56-.37c-.26-.14-.61-.3-1-.49a6.36,6.36,0,0,1-1.39-.73,2.05,2.05,0,0,1-.65-.77,2.62,2.62,0,0,1-.2-1.07,2,2,0,0,1,.85-1.69,4.09,4.09,0,0,1,2.4-.6,6.86,6.86,0,0,1,2.88.65l-.68,1.61c-.41-.18-.79-.32-1.15-.44a3.64,3.64,0,0,0-1.09-.16c-.66,0-1,.17-1,.53a.64.64,0,0,0,.32.52,8.48,8.48,0,0,0,1.4.65,6,6,0,0,1,1.4.73,2.08,2.08,0,0,1,.66.77A2.46,2.46,0,0,1,558.94,616Z" style="fill: #141e50"/>
      <path d="M564,618.61q-3.82,0-3.82-4.2a4.5,4.5,0,0,1,1-3.19,3.92,3.92,0,0,1,3-1.1,5.69,5.69,0,0,1,2.55.56l-.66,1.73a9.08,9.08,0,0,0-1-.35,3.19,3.19,0,0,0-.91-.14c-1.16,0-1.74.83-1.74,2.48s.58,2.4,1.74,2.4a4.07,4.07,0,0,0,1.19-.17,4.48,4.48,0,0,0,1.1-.54V618a3.6,3.6,0,0,1-1.09.48A6.11,6.11,0,0,1,564,618.61Z" style="fill: #141e50"/>
      <path d="M575.84,614.35a4.4,4.4,0,0,1-1.05,3.13,3.86,3.86,0,0,1-2.94,1.13,4,4,0,0,1-2.08-.52,3.41,3.41,0,0,1-1.38-1.48,4.92,4.92,0,0,1-.49-2.26,4.39,4.39,0,0,1,1.05-3.12,3.85,3.85,0,0,1,2.94-1.11,4.14,4.14,0,0,1,2.08.51,3.49,3.49,0,0,1,1.39,1.48A5,5,0,0,1,575.84,614.35Zm-5.66,0a3.37,3.37,0,0,0,.4,1.84,1.41,1.41,0,0,0,1.3.62,1.43,1.43,0,0,0,1.29-.61,3.54,3.54,0,0,0,.39-1.85,3.41,3.41,0,0,0-.4-1.82,1.45,1.45,0,0,0-1.3-.61,1.4,1.4,0,0,0-1.28.61A3.3,3.3,0,0,0,570.18,614.35Z" style="fill: #141e50"/>
      <path d="M582.26,610.12a3.18,3.18,0,0,1,.75.07l-.17,2.09a2.52,2.52,0,0,0-.66-.07,2.34,2.34,0,0,0-1.66.55,2,2,0,0,0-.6,1.53v4.17h-2.23v-8.19h1.69l.33,1.38h.11a3.05,3.05,0,0,1,1-1.11A2.53,2.53,0,0,1,582.26,610.12Z" style="fill: #141e50"/>
      <path d="M588.21,618.61a4.25,4.25,0,0,1-3.1-1.09,4.15,4.15,0,0,1-1.11-3.09,4.51,4.51,0,0,1,1-3.18,3.67,3.67,0,0,1,2.85-1.13,3.62,3.62,0,0,1,2.7,1,3.76,3.76,0,0,1,1,2.73v1.09h-5.28a2.17,2.17,0,0,0,.57,1.48,2,2,0,0,0,1.48.54,5.78,5.78,0,0,0,1.4-.16,6.49,6.49,0,0,0,1.37-.49V618a5.14,5.14,0,0,1-1.25.44A8.27,8.27,0,0,1,588.21,618.61Zm-.32-6.9a1.4,1.4,0,0,0-1.11.45,2,2,0,0,0-.46,1.28h3.13a1.86,1.86,0,0,0-.43-1.28A1.48,1.48,0,0,0,587.89,611.71Z" style="fill: #141e50"/>
    </g>
  </g>
  <g id="cntry_left">
    <g id="_8" data-name=" 8" style="isolation: isolate">
      <text transform="translate(42.1 38.66)" style="isolation: isolate;font-size: 10px;fill: #8a8c8e;font-family: OpenSans-Regular">8</text>
    </g>
    <g id="_7" data-name=" 7" style="isolation: isolate">
      <text transform="translate(42.1 172.85)" style="isolation: isolate;font-size: 10px;fill: #8a8c8e;font-family: OpenSans-Regular">7</text>
    </g>
    <g id="_6" data-name=" 6" style="isolation: isolate">
      <text transform="translate(42.1 239.95)" style="isolation: isolate;font-size: 10px;fill: #8a8c8e;font-family: OpenSans-Regular">6</text>
    </g>
    <g id="_6-2" data-name=" 6-2" style="isolation: isolate">
      <text transform="translate(42.1 307.05)" style="isolation: isolate;font-size: 10px;fill: #8a8c8e;font-family: OpenSans-Regular">6</text>
    </g>
    <g id="_5" data-name=" 5" style="isolation: isolate">
      <text transform="translate(42.1 374.91)" style="isolation: isolate;font-size: 10px;fill: #8a8c8e;font-family: OpenSans-Regular">5</text>
    </g>
    <g id="_5-2" data-name=" 5-2" style="isolation: isolate">
      <text transform="translate(42.1 442.01)" style="isolation: isolate;font-size: 10px;fill: #8a8c8e;font-family: OpenSans-Regular">5</text>
    </g>
    <g id="_4" data-name=" 4" style="isolation: isolate">
      <text transform="translate(42.1 509.1)" style="isolation: isolate;font-size: 10px;fill: #8a8c8e;font-family: OpenSans-Regular">4</text>
    </g>
    <g id="_4-2" data-name=" 4-2" style="isolation: isolate">
      <text transform="translate(42.1 574.56)" style="isolation: isolate;font-size: 10px;fill: #8a8c8e;font-family: OpenSans-Regular">4</text>
    </g>
    <g id="_7-2" data-name=" 7-2" style="isolation: isolate">
      <text transform="translate(42.1 105.76)" style="isolation: isolate;font-size: 10px;fill: #8a8c8e;font-family: OpenSans-Regular">7</text>
    </g>
    <line id="Line_16" data-name="Line 16" x1="55.56" y1="42.71" x2="55.56" y2="576.45" style="fill: none;stroke: #707070"/>
    <g id="Spread_" data-name="Spread " style="isolation: isolate">
      <g style="isolation: isolate">
        <path d="M24.93,341.5a2.74,2.74,0,0,1,2.28,1.05,4.49,4.49,0,0,1,.84,2.9,6.82,6.82,0,0,1-.65,3H25.29a12.61,12.61,0,0,0,.69-1.83,5.48,5.48,0,0,0,.19-1.37,2,2,0,0,0-.28-1.15,1,1,0,0,0-.85-.4.91.91,0,0,0-.56.18,1.8,1.8,0,0,0-.47.51,11.42,11.42,0,0,0-.73,1.39,6.33,6.33,0,0,1-.89,1.47,3.38,3.38,0,0,1-1,.79,2.92,2.92,0,0,1-1.32.29,2.79,2.79,0,0,1-2.24-1,4,4,0,0,1-.81-2.67,6.41,6.41,0,0,1,.2-1.59,12.07,12.07,0,0,1,.55-1.59l1.77.74a11,11,0,0,0-.49,1.41,4.82,4.82,0,0,0-.14,1.11,1.42,1.42,0,0,0,.3,1,1,1,0,0,0,.78.35,1,1,0,0,0,.53-.14,1.51,1.51,0,0,0,.43-.44,12.78,12.78,0,0,0,.75-1.44,5.77,5.77,0,0,1,1.44-2.06A2.82,2.82,0,0,1,24.93,341.5Z" style="fill: #141e50"/>
        <path d="M28.05,335.24A2.7,2.7,0,0,1,27,337.5v.12c.69-.08,1.08-.12,1.19-.12h3.32v2.24H19.71v-1.82l1.06-.31v-.11a2.59,2.59,0,0,1-1.21-2.32,2.66,2.66,0,0,1,1.12-2.27,5.25,5.25,0,0,1,3.11-.82,6,6,0,0,1,2.28.39,3.1,3.1,0,0,1,1.47,1.09A2.78,2.78,0,0,1,28.05,335.24Zm-6.7.66a1.41,1.41,0,0,0,.51,1.21,2.94,2.94,0,0,0,1.68.39h.24a3.46,3.46,0,0,0,1.89-.39,1.39,1.39,0,0,0,.57-1.24c0-1-.83-1.5-2.48-1.5a3.5,3.5,0,0,0-1.81.37A1.26,1.26,0,0,0,21.35,335.9Z" style="fill: #141e50"/>
        <path d="M19.56,325.68a3.22,3.22,0,0,1,.07-.76l2.09.17a2.52,2.52,0,0,0-.07.66,2.37,2.37,0,0,0,.55,1.67,2,2,0,0,0,1.53.59H27.9v2.24H19.71v-1.7l1.38-.33v-.1a3.14,3.14,0,0,1-1.11-1A2.58,2.58,0,0,1,19.56,325.68Z" style="fill: #141e50"/>
        <path d="M28.05,319.73A4.21,4.21,0,0,1,27,322.82a4.15,4.15,0,0,1-3.09,1.11,4.53,4.53,0,0,1-3.19-1,3.64,3.64,0,0,1-1.12-2.84,3.59,3.59,0,0,1,1-2.7,3.72,3.72,0,0,1,2.73-1h1.08v5.28a2.14,2.14,0,0,0,1.49-.56,2,2,0,0,0,.54-1.48,6.25,6.25,0,0,0-.16-1.4,6.56,6.56,0,0,0-.49-1.38h1.73a5.3,5.3,0,0,1,.44,1.25A8.38,8.38,0,0,1,28.05,319.73Zm-6.9.31a1.43,1.43,0,0,0,.45,1.12,2.09,2.09,0,0,0,1.28.46v-3.14a1.87,1.87,0,0,0-1.28.44A1.44,1.44,0,0,0,21.15,320Z" style="fill: #141e50"/>
        <path d="M27.9,309.37l-1.11.43v.06a3.39,3.39,0,0,1,1,1.16,3.66,3.66,0,0,1,.28,1.56,2.52,2.52,0,0,1-.68,1.86,2.56,2.56,0,0,1-1.91.67,2.18,2.18,0,0,1-1.93-.91,5.27,5.27,0,0,1-.68-2.75L22.8,310h-.36a1.12,1.12,0,0,0-1.24,1.28,5.86,5.86,0,0,0,.59,2.3l-1.51.74a6.66,6.66,0,0,1-.74-3.13,3.91,3.91,0,0,1,.72-2.53,2.65,2.65,0,0,1,2.18-.88H27.9Zm-3.79.66,0,.87a2.76,2.76,0,0,0,.35,1.45,1.11,1.11,0,0,0,1,.47c.63,0,1-.36,1-1.08A1.7,1.7,0,0,0,26,310.5a1.59,1.59,0,0,0-1.19-.47Z" style="fill: #141e50"/>
        <path d="M28.05,302.92a2.66,2.66,0,0,1-1.12,2.27,5.15,5.15,0,0,1-3.11.82,5.16,5.16,0,0,1-3.14-.84,2.72,2.72,0,0,1-1.12-2.31,2.67,2.67,0,0,1,1.2-2.36v-.07a9.31,9.31,0,0,1-1.63.17H16.51v-2.24H27.9v1.71l-1.06.43v.1A2.55,2.55,0,0,1,28.05,302.92Zm-1.78-.78a1.52,1.52,0,0,0-.5-1.26,2.91,2.91,0,0,0-1.69-.44h-.24a3.35,3.35,0,0,0-1.89.41,1.51,1.51,0,0,0-.57,1.32,1.3,1.3,0,0,0,.63,1.16,3.34,3.34,0,0,0,1.84.42,3.16,3.16,0,0,0,1.81-.42A1.36,1.36,0,0,0,26.27,302.14Z" style="fill: #141e50"/>
        <path d="M16.51,292.15l2.69.3-.76-2.73,1.84-.24.18,2.49,2.18-1.63.88,1.66-2.29,1.14,2.28,1-.87,1.72-2.18-1.62-.19,2.48-1.83-.29.76-2.67-2.69.3Z" style="fill: #141e50"/>
      </g>
    </g>
  </g>
  <line id="Line_15" data-name="Line 15" x1="74.02" y1="139.41" x2="1042.96" y2="368.29" style="fill: none;stroke: #141e50;stroke-miterlimit: 10;stroke-width: 2px"/>
  <g id="cntry">
    <rect id="Rectangle_8819" data-name="Rectangle 8819" x="191.29" y="148.13" width="5.57" height="5.57" transform="translate(-50.24 178.36) rotate(-44.28)" style="fill: #1a9ce3"/>
    <g id="Iraq" style="isolation: isolate">
      <text transform="translate(193.04 143.38)" style="isolation: isolate;font-size: 10px;fill: #6e6e72;font-family: OpenSans-Regular">Iraq</text>
    </g>
  </g>
  <g id="cntry-2" data-name="cntry">
    <rect id="Rectangle_8822" data-name="Rectangle 8822" x="202.72" y="196.16" width="5.57" height="5.57" transform="translate(-80.52 199.99) rotate(-44.28)" style="fill: #1a9ce3"/>
    <g id="Ethiopia" style="isolation: isolate">
      <text transform="translate(168.36 191.42)" style="isolation: isolate;font-size: 10px;fill: #6e6e72;font-family: OpenSans-Regular">Ethiopia</text>
    </g>
  </g>
  <g id="cntry-3" data-name="cntry">
    <rect id="Rectangle_8823" data-name="Rectangle 8823" x="261.43" y="187.01" width="5.57" height="5.57" transform="translate(-57.46 238.38) rotate(-44.28)" style="fill: #1a9ce3"/>
    <g id="Pakistan" style="isolation: isolate">
      <text transform="translate(263.64 181.27)" style="isolation: isolate;font-size: 10px;fill: #6e6e72;font-family: OpenSans-Regular">Pakistan</text>
    </g>
  </g>
  <g id="cntry-4" data-name="cntry">
    <rect id="Rectangle_8824" data-name="Rectangle 8824" x="285.07" y="212.94" width="5.57" height="5.57" transform="translate(-68.84 262.24) rotate(-44.28)" style="fill: #1a9ce3"/>
    <g id="Ivory_Coast" data-name="Ivory Coast" style="isolation: isolate">
      <text transform="translate(286.49 230.19)" style="isolation: isolate;font-size: 10px;fill: #6e6e72;font-family: OpenSans-Regular">Ivory Coast</text>
    </g>
  </g>
  <g id="cntry-5" data-name="cntry">
    <rect id="Rectangle_8825" data-name="Rectangle 8825" x="297.27" y="167.95" width="5.57" height="5.57" transform="translate(-33.97 257.98) rotate(-44.28)" style="fill: #1a9ce3"/>
    <g id="Papua_New_Guinea" data-name="Papua New Guinea" style="isolation: isolate">
      <text transform="translate(217.29 163.21)" style="isolation: isolate;font-size: 10px;fill: #6e6e72;font-family: OpenSans-Regular">Papua New Guinea</text>
    </g>
  </g>
  <g id="cntry-6" data-name="cntry">
    <rect id="Rectangle_8827" data-name="Rectangle 8827" x="371.18" y="126.78" width="5.57" height="5.57" transform="translate(15.77 297.89) rotate(-44.28)" style="fill: #1a9ce3"/>
    <g id="Tajikistan" style="isolation: isolate">
      <text transform="translate(371.97 121.73)" style="isolation: isolate;font-size: 10px;fill: #6e6e72;font-family: OpenSans-Regular">Tajikistan</text>
    </g>
  </g>
  <g id="cntry-7" data-name="cntry">
    <rect id="Rectangle_8833" data-name="Rectangle 8833" x="461.96" y="209.13" width="5.57" height="5.57" transform="translate(-15.93 384.66) rotate(-44.28)" style="fill: #1a9ce3"/>
    <g id="Senegal" style="isolation: isolate">
      <text transform="translate(463.16 204.38)" style="isolation: isolate;font-size: 10px;fill: #6e6e72;font-family: OpenSans-Regular">Senegal</text>
    </g>
  </g>
  <g id="cntry-8" data-name="cntry">
    <rect id="Rectangle_8834" data-name="Rectangle 8834" x="615.98" y="174.81" width="5.57" height="5.57" transform="translate(51.77 482.44) rotate(-44.28)" style="fill: #1a9ce3"/>
    <g id="Tunisia" style="isolation: isolate">
      <text transform="translate(617.18 170.07)" style="isolation: isolate;font-size: 10px;fill: #6e6e72;font-family: OpenSans-Regular">Tunisia</text>
    </g>
  </g>
  <g id="cntry-9" data-name="cntry">
    <rect id="Rectangle_8844" data-name="Rectangle 8844" x="721.97" y="196.16" width="5.57" height="5.57" transform="translate(66.97 562.5) rotate(-44.28)" style="fill: #1a9ce3"/>
    <g id="Oman" style="isolation: isolate">
      <text transform="translate(724.03 192.42)" style="isolation: isolate;font-size: 10px;fill: #6e6e72;font-family: OpenSans-Regular">Oman</text>
    </g>
  </g>
  <g id="cntry-10" data-name="cntry">
    <rect id="Rectangle_8845" data-name="Rectangle 8845" x="757.8" y="228.19" width="5.57" height="5.57" transform="translate(54.79 596.62) rotate(-44.28)" style="fill: #1a9ce3"/>
    <g id="Jamaica" style="isolation: isolate">
      <text transform="translate(760.48 223.44)" style="isolation: isolate;font-size: 10px;fill: #6e6e72;font-family: OpenSans-Regular">Jamaica</text>
    </g>
  </g>
  <g id="cntry-11" data-name="cntry">
    <rect id="Rectangle_8846" data-name="Rectangle 8846" x="828.71" y="308.25" width="5.57" height="5.57" transform="translate(19.04 668.86) rotate(-44.28)" style="fill: #1a9ce3"/>
    <g id="Romania_" data-name="Romania " style="isolation: isolate">
      <text transform="translate(830.12 303.5)" style="isolation: isolate;font-size: 10px;fill: #6e6e72;font-family: OpenSans-Regular">Romania</text>
    </g>
  </g>
  <g id="cntry-12" data-name="cntry">
    <rect id="Rectangle_8853" data-name="Rectangle 8853" x="828.71" y="352.47" width="5.57" height="5.57" transform="translate(-11.83 681.42) rotate(-44.28)" style="fill: #1a9ce3"/>
    <g id="Malaysia" style="isolation: isolate">
      <text transform="translate(792.31 347.73)" style="isolation: isolate;font-size: 10px;fill: #6e6e72;font-family: OpenSans-Regular">Malaysia</text>
    </g>
  </g>
  <g id="cntry-13" data-name="cntry">
    <rect id="Rectangle_8860" data-name="Rectangle 8860" x="734.93" y="335.7" width="5.57" height="5.57" transform="translate(-26.76 611.18) rotate(-44.28)" style="fill: #1a9ce3"/>
    <g id="Panama" style="isolation: isolate">
      <text transform="translate(700.5 330.95)" style="isolation: isolate;font-size: 10px;fill: #6e6e72;font-family: OpenSans-Regular">Panama</text>
    </g>
  </g>
  <g id="cntry-14" data-name="cntry">
    <rect id="Rectangle_8861" data-name="Rectangle 8861" x="722.73" y="361.62" width="5.57" height="5.57" transform="translate(-48.33 610.03) rotate(-44.28)" style="fill: #1a9ce3"/>
    <g id="Qatar" style="isolation: isolate">
      <text transform="translate(701.69 356.88)" style="isolation: isolate;font-size: 10px;fill: #6e6e72;font-family: OpenSans-Regular">Qatar</text>
    </g>
  </g>
  <g id="cntry-15" data-name="cntry">
    <rect id="Rectangle_8862" data-name="Rectangle 8862" x="699.09" y="394.41" width="5.57" height="5.57" transform="translate(-77.93 602.84) rotate(-44.28)" style="fill: #1a9ce3"/>
    <g id="Serbia" style="isolation: isolate">
      <text transform="translate(686.85 389.66)" style="isolation: isolate;font-size: 10px;fill: #6e6e72;font-family: OpenSans-Regular">Serbia</text>
    </g>
  </g>
  <g id="cntry-16" data-name="cntry">
    <rect id="Rectangle_8863" data-name="Rectangle 8863" x="663.26" y="356.28" width="5.57" height="5.57" transform="translate(-61.5 566.99) rotate(-44.28)" style="fill: #1a9ce3"/>
    <g id="Peru" style="isolation: isolate">
      <text transform="translate(645.84 351.54)" style="isolation: isolate;font-size: 10px;fill: #6e6e72;font-family: OpenSans-Regular">Peru</text>
    </g>
  </g>
  <g id="cntry-17" data-name="cntry">
    <rect id="Rectangle_8865" data-name="Rectangle 8865" x="533.64" y="372.3" width="5.57" height="5.57" transform="translate(-109.49 481.05) rotate(-44.28)" style="fill: #1a9ce3"/>
    <g id="Philippines" style="isolation: isolate">
      <text transform="translate(535.42 389.19)" style="isolation: isolate;font-size: 10px;fill: #6e6e72;font-family: OpenSans-Regular">Philippines</text>
    </g>
  </g>
  <g id="cntry-18" data-name="cntry">
    <rect id="Rectangle_8874" data-name="Rectangle 8874" x="545.07" y="338.75" width="5.57" height="5.57" transform="translate(-82.82 479.5) rotate(-44.28)" style="fill: #1a9ce3"/>
    <g id="Saudi_Arabia" data-name="Saudi Arabia" style="isolation: isolate">
      <text transform="translate(517.02 356.64)" style="isolation: isolate;font-size: 10px;fill: #6e6e72;font-family: OpenSans-Regular">Saudi Arabia</text>
    </g>
  </g>
  <g id="cntry-19" data-name="cntry">
    <rect id="Rectangle_8866" data-name="Rectangle 8866" x="592.35" y="332.65" width="5.57" height="5.57" transform="translate(-65.14 510.77) rotate(-44.28)" style="fill: #1a9ce3"/>
    <g id="Russia" style="isolation: isolate">
      <text transform="translate(593.59 349.06)" style="isolation: isolate;font-size: 10px;fill: #6e6e72;font-family: OpenSans-Regular">Russia</text>
    </g>
  </g>
  <g id="cntry-20" data-name="cntry">
    <rect id="Rectangle_8867" data-name="Rectangle 8867" x="474.93" y="315.87" width="5.57" height="5.57" transform="translate(-86.78 424.03) rotate(-44.28)" style="fill: #1a9ce3"/>
    <g id="India" style="isolation: isolate">
      <text transform="translate(466.1 312.13)" style="isolation: isolate;font-size: 10px;fill: #6e6e72;font-family: OpenSans-Regular">India</text>
    </g>
  </g>
  <g id="cntry-21" data-name="cntry">
    <rect id="Rectangle_8875" data-name="Rectangle 8875" x="557.27" y="310.54" width="5.57" height="5.57" transform="translate(-59.66 480.01) rotate(-44.28)" style="fill: #1a9ce3"/>
    <g id="Morocco" style="isolation: isolate">
      <text transform="translate(519.78 305.79)" style="isolation: isolate;font-size: 10px;fill: #6e6e72;font-family: OpenSans-Regular">Morocco</text>
    </g>
  </g>
  <g id="cntry-22" data-name="cntry">
    <rect id="Rectangle_8876" data-name="Rectangle 8876" x="567.95" y="284.61" width="5.57" height="5.57" transform="translate(-38.53 480.09) rotate(-44.28)" style="fill: #1a9ce3"/>
    <g id="Paraguay" style="isolation: isolate">
      <text transform="translate(569.58 278.87)" style="isolation: isolate;font-size: 10px;fill: #6e6e72;font-family: OpenSans-Regular">Paraguay</text>
    </g>
  </g>
  <g id="cntry-23" data-name="cntry">
    <rect id="Rectangle_8878" data-name="Rectangle 8878" x="638.86" y="302.15" width="5.57" height="5.57" transform="translate(-30.63 534.58) rotate(-44.28)" style="fill: #1a9ce3"/>
    <g id="Kazakhstan" style="isolation: isolate">
      <text transform="translate(640.74 297.4)" style="isolation: isolate;font-size: 10px;fill: #6e6e72;font-family: OpenSans-Regular">Kazakhstan</text>
    </g>
  </g>
  <g id="cntry-24" data-name="cntry">
    <rect id="Rectangle_8868" data-name="Rectangle 8868" x="416.21" y="244.2" width="5.57" height="5.57" transform="translate(-53.42 362.68) rotate(-44.28)" style="fill: #1a9ce3"/>
    <g id="Honduras" style="isolation: isolate">
      <text transform="translate(372.69 239.46)" style="isolation: isolate;font-size: 10px;fill: #6e6e72;font-family: OpenSans-Regular">Honduras</text>
    </g>
  </g>
  <g id="cntry-25" data-name="cntry">
    <rect id="Rectangle_8870" data-name="Rectangle 8870" x="463.49" y="268.6" width="5.57" height="5.57" transform="translate(-57.02 402.62) rotate(-44.28)" style="fill: #1a9ce3"/>
    <g id="Guatemala" style="isolation: isolate">
      <text transform="translate(465.26 287.02)" style="isolation: isolate;font-size: 10px;fill: #6e6e72;font-family: OpenSans-Regular">Guatemala</text>
    </g>
  </g>
  <g id="cntry-26" data-name="cntry">
    <rect id="Rectangle_8854" data-name="Rectangle 8854" x="887.42" y="361.62" width="5.57" height="5.57" transform="translate(-1.55 725.01) rotate(-44.28)" style="fill: #1a9ce3"/>
    <g id="Hungary_" data-name="Hungary " style="isolation: isolate">
      <text transform="translate(889.34 356.88)" style="isolation: isolate;font-size: 10px;fill: #6e6e72;font-family: OpenSans-Regular">Hungary</text>
    </g>
  </g>
  <g id="cntry-27" data-name="cntry">
    <rect id="Rectangle_8858" data-name="Rectangle 8858" x="947.66" y="525.55" width="5.57" height="5.57" transform="translate(-98.89 813.63) rotate(-44.28)" style="fill: #1a9ce3"/>
    <g id="Poland" style="isolation: isolate">
      <text transform="translate(919.39 519.81)" style="isolation: isolate;font-size: 10px;fill: #6e6e72;font-family: OpenSans-Regular">Poland</text>
    </g>
  </g>
  <g id="cntry-28" data-name="cntry">
    <rect id="Rectangle_8859" data-name="Rectangle 8859" x="1041.44" y="531.65" width="5.57" height="5.57" transform="translate(-76.5 880.84) rotate(-44.28)" style="fill: #1a9ce3"/>
    <g id="Lithuania" style="isolation: isolate">
      <text transform="translate(1002.14 525.91)" style="isolation: isolate;font-size: 10px;fill: #6e6e72;font-family: OpenSans-Regular">Lithuania</text>
    </g>
  </g>
  <g id="cntry-29" data-name="cntry">
    <rect id="Rectangle_8855" data-name="Rectangle 8855" x="946.13" y="364.67" width="5.57" height="5.57" transform="translate(13 766.87) rotate(-44.28)" style="fill: #1a9ce3"/>
    <g id="United_Arab_Emirates" data-name="United Arab Emirates" style="isolation: isolate">
      <text transform="translate(920 383.04)" style="isolation: isolate;font-size: 10px;fill: #6e6e72;font-family: OpenSans-Regular">United Arab Emirates</text>
    </g>
  </g>
  <g id="cntry-30" data-name="cntry">
    <rect id="Rectangle_8857" data-name="Rectangle 8857" x="911.06" y="383.73" width="5.57" height="5.57" transform="translate(-10.27 747.8) rotate(-44.28)" style="fill: #1a9ce3"/>
    <rect id="Rectangle_8856" data-name="Rectangle 8856" x="911.06" y="383.55" width="5.57" height="5.57" transform="translate(-10.14 747.74) rotate(-44.28)" style="fill: #1a9ce3"/>
    <g id="Croatia" style="isolation: isolate">
      <text transform="translate(910.19 401.39)" style="isolation: isolate;font-size: 10px;fill: #6e6e72;font-family: OpenSans-Regular">Croatia</text>
    </g>
  </g>
  <g id="cntry-31" data-name="cntry">
    <rect id="Rectangle_8851" data-name="Rectangle 8851" x="959.1" y="334.17" width="5.57" height="5.57" transform="translate(37.98 767.25) rotate(-44.28)" style="fill: #1a9ce3"/>
    <g id="Uruguay" style="isolation: isolate">
      <text transform="translate(969.62 341.39)" style="isolation: isolate;font-size: 10px;fill: #6e6e72;font-family: OpenSans-Regular">Uruguay</text>
    </g>
  </g>
  <g id="cntry-32" data-name="cntry">
    <rect id="Rectangle_8847" data-name="Rectangle 8847" x="816.51" y="193.11" width="5.57" height="5.57" transform="translate(95.96 627.64) rotate(-44.28)" style="fill: #1a9ce3"/>
    <g id="Georgia" style="isolation: isolate">
      <text transform="translate(816.63 188.37)" style="isolation: isolate;font-size: 10px;fill: #6e6e72;font-family: OpenSans-Regular">Georgia</text>
    </g>
  </g>
  <g id="cntry-33" data-name="cntry">
    <rect id="Rectangle_8831" data-name="Rectangle 8831" x="510" y="156.52" width="5.57" height="5.57" transform="translate(34.44 403.25) rotate(-44.28)" style="fill: #1a9ce3"/>
    <g id="Ghana" style="isolation: isolate">
      <text transform="translate(482.36 151.77)" style="isolation: isolate;font-size: 10px;fill: #6e6e72;font-family: OpenSans-Regular">Ghana</text>
    </g>
  </g>
  <g id="cntry-34" data-name="cntry">
    <rect id="Rectangle_8832" data-name="Rectangle 8832" x="592.35" y="154.99" width="5.57" height="5.57" transform="translate(58.9 460.31) rotate(-44.28)" style="fill: #1a9ce3"/>
    <g id="El_Salvador" data-name="El Salvador" style="isolation: isolate">
      <text transform="translate(594.11 150.25)" style="isolation: isolate;font-size: 10px;fill: #6e6e72;font-family: OpenSans-Regular">El Salvador</text>
    </g>
  </g>
  <g id="cntry-35" data-name="cntry">
    <rect id="Rectangle_8840" data-name="Rectangle 8840" x="544.31" y="241.15" width="5.57" height="5.57" transform="translate(-14.9 451.25) rotate(-44.28)" style="fill: #1a9ce3"/>
    <g id="Namibia" style="isolation: isolate">
      <text transform="translate(508.62 236.4)" style="isolation: isolate;font-size: 10px;fill: #6e6e72;font-family: OpenSans-Regular">Namibia</text>
    </g>
  </g>
  <g id="cntry-36" data-name="cntry">
    <rect id="Rectangle_8879" data-name="Rectangle 8879" x="615.98" y="308.25" width="5.57" height="5.57" transform="translate(-41.39 520.35) rotate(-44.28)" style="fill: #1a9ce3"/>
    <g id="Indonesia" style="isolation: isolate">
      <text transform="translate(617.49 325.61)" style="isolation: isolate;font-size: 10px;fill: #6e6e72;font-family: OpenSans-Regular">Indonesia</text>
    </g>
  </g>
  <g id="cntry-37" data-name="cntry">
    <rect id="Rectangle_8837" data-name="Rectangle 8837" x="580.15" y="189.3" width="5.57" height="5.57" transform="translate(31.48 461.54) rotate(-44.28)" style="fill: #1a9ce3"/>
    <g id="Ukraine" style="isolation: isolate">
      <text transform="translate(547.33 184.56)" style="isolation: isolate;font-size: 10px;fill: #6e6e72;font-family: OpenSans-Regular">Ukraine</text>
    </g>
  </g>
  <g id="cntry-38" data-name="cntry">
    <rect id="Rectangle_8838" data-name="Rectangle 8838" x="603.78" y="205.31" width="5.57" height="5.57" transform="translate(27.01 482.59) rotate(-44.28)" style="fill: #1a9ce3"/>
    <g id="Mexico" style="isolation: isolate">
      <text transform="translate(605.11 200.57)" style="isolation: isolate;font-size: 10px;fill: #6e6e72;font-family: OpenSans-Regular">Mexico</text>
    </g>
  </g>
  <g id="cntry-39" data-name="cntry">
    <rect id="Rectangle_8839" data-name="Rectangle 8839" x="639.62" y="213.7" width="5.57" height="5.57" transform="translate(31.34 509.99) rotate(-44.28)" style="fill: #1a9ce3"/>
    <g id="Mongolia" style="isolation: isolate">
      <text transform="translate(641.31 208.96)" style="isolation: isolate;font-size: 10px;fill: #6e6e72;font-family: OpenSans-Regular">Mongolia</text>
    </g>
  </g>
  <g id="cntry-40" data-name="cntry">
    <rect id="Rectangle_8828" data-name="Rectangle 8828" x="379.62" y="166.43" width="5.57" height="5.57" transform="translate(-9.51 315.04) rotate(-44.28)" style="fill: #1a9ce3"/>
    <g id="Gabon" style="isolation: isolate">
      <text transform="translate(379.74 161.68)" style="isolation: isolate;font-size: 10px;fill: #6e6e72;font-family: OpenSans-Regular">Gabon</text>
    </g>
  </g>
  <g id="cntry-41" data-name="cntry">
    <rect id="Rectangle_8829" data-name="Rectangle 8829" x="392.58" y="177.86" width="5.57" height="5.57" transform="translate(-13.82 327.34) rotate(-44.28)" style="fill: #1a9ce3"/>
    <g id="Egypt" style="isolation: isolate">
      <text transform="translate(393.69 195.04)" style="isolation: isolate;font-size: 10px;fill: #6e6e72;font-family: OpenSans-Regular">Egypt</text>
    </g>
  </g>
  <g id="cntry-42" data-name="cntry">
    <rect id="Rectangle_8826" data-name="Rectangle 8826" x="368.18" y="178.44" width="5.57" height="5.57" transform="translate(-21.15 310.47) rotate(-44.28)" style="fill: #1a9ce3"/>
    <g id="Kenya" style="isolation: isolate">
      <text transform="translate(333.76 185)" style="isolation: isolate;font-size: 10px;fill: #6e6e72;font-family: OpenSans-Regular">Kenya</text>
    </g>
  </g>
  <g id="cntry-43" data-name="cntry">
    <rect id="Rectangle_8835" data-name="Rectangle 8835" x="544.31" y="213.52" width="5.57" height="5.57" transform="translate(4.39 443.4) rotate(-44.28)" style="fill: #1a9ce3"/>
    <g id="South_Africa" data-name="South Africa" style="isolation: isolate">
      <text transform="translate(483.71 219)" style="isolation: isolate;font-size: 10px;fill: #6e6e72;font-family: OpenSans-Regular">South Africa</text>
    </g>
  </g>
  <g id="cntry-44" data-name="cntry">
    <rect id="Rectangle_8871" data-name="Rectangle 8871" x="449.76" y="267.65" width="5.57" height="5.57" transform="translate(-60.26 392.77) rotate(-44.28)" style="fill: #1a9ce3"/>
    <g id="Uzbekistan" style="isolation: isolate">
      <text transform="translate(402.26 263)" style="isolation: isolate;font-size: 10px;fill: #6e6e72;font-family: OpenSans-Regular">Uzbekistan</text>
    </g>
  </g>
  <g id="cntry-45" data-name="cntry">
    <rect id="Rectangle_8850" data-name="Rectangle 8850" x="887.42" y="169.48" width="5.57" height="5.57" transform="translate(132.6 670.43) rotate(-44.28)" style="fill: #1a9ce3"/>
    <g id="Costa_Rica" data-name="Costa Rica" style="isolation: isolate">
      <text transform="translate(888.34 186.37)" style="isolation: isolate;font-size: 10px;fill: #6e6e72;font-family: OpenSans-Regular">Costa Rica</text>
    </g>
  </g>
  <g id="cntry-46" data-name="cntry">
    <rect id="Rectangle_8877" data-name="Rectangle 8877" x="592.35" y="293.76" width="5.57" height="5.57" transform="translate(-37.99 499.73) rotate(-44.28)" style="fill: #1a9ce3"/>
    <g id="Colombia" style="isolation: isolate">
      <text transform="translate(592.49 289.02)" style="isolation: isolate;font-size: 10px;fill: #6e6e72;font-family: OpenSans-Regular">Colombia</text>
    </g>
  </g>
  <g id="cntry-47" data-name="cntry">
    <rect id="Rectangle_8869" data-name="Rectangle 8869" x="522.2" y="328.83" width="5.57" height="5.57" transform="translate(-82.4 460.72) rotate(-44.28)" style="fill: #1a9ce3"/>
    <g id="China" style="isolation: isolate">
      <text transform="translate(522.08 324.09)" style="isolation: isolate;font-size: 10px;fill: #6e6e72;font-family: OpenSans-Regular">China</text>
    </g>
  </g>
  <g id="cntry-48" data-name="cntry">
    <rect id="Rectangle_8852" data-name="Rectangle 8852" x="933.94" y="336.46" width="5.57" height="5.57" transform="translate(29.23 750.34) rotate(-44.28)" style="fill: #1a9ce3"/>
    <g id="Chile" style="isolation: isolate">
      <text transform="translate(935.12 331.95)" style="isolation: isolate;font-size: 10px;fill: #6e6e72;font-family: OpenSans-Regular">Chile</text>
    </g>
  </g>
  <g id="cntry-49" data-name="cntry">
    <rect id="Rectangle_8820" data-name="Rectangle 8820" x="72.34" y="148.13" width="5.57" height="5.57" transform="translate(-84.02 95.32) rotate(-44.28)" style="fill: #1a9ce3"/>
    <g id="Cameroon" style="isolation: isolate">
      <text transform="translate(72.17 165.73)" style="isolation: isolate;font-size: 10px;fill: #6e6e72;font-family: OpenSans-Regular">Cameroon</text>
    </g>
  </g>
  <g id="cntry-50" data-name="cntry">
    <rect id="Rectangle_8841" data-name="Rectangle 8841" x="603.78" y="260.97" width="5.57" height="5.57" transform="translate(-11.85 498.4) rotate(-44.28)" style="fill: #1a9ce3"/>
    <g id="Brazil" style="isolation: isolate">
      <text transform="translate(606.62 255.64)" style="isolation: isolate;font-size: 9.310779571533203px;fill: #6e6e72;font-family: OpenSans-Regular">Brazil</text>
    </g>
  </g>
  <g id="cntry-51" data-name="cntry">
    <rect id="Rectangle_8830" data-name="Rectangle 8830" x="439.09" y="190.83" width="5.57" height="5.57" transform="translate(-9.66 363.49) rotate(-44.28)" style="fill: #1a9ce3"/>
    <g id="Bolivia" style="isolation: isolate">
      <text transform="translate(439.45 186.08)" style="isolation: isolate;font-size: 10px;fill: #6e6e72;font-family: OpenSans-Regular">Bolivia</text>
    </g>
  </g>
  <g id="cntry-52" data-name="cntry">
    <rect id="Rectangle_8843" data-name="Rectangle 8843" x="686.13" y="188.54" width="5.57" height="5.57" transform="translate(62.11 535.32) rotate(-44.28)" style="fill: #1a9ce3"/>
    <g id="Belarus" style="isolation: isolate">
      <text transform="translate(687.72 183.79)" style="isolation: isolate;font-size: 10px;fill: #6e6e72;font-family: OpenSans-Regular">Belarus</text>
    </g>
  </g>
  <g id="cntry-53" data-name="cntry">
    <rect id="Rectangle_8848" data-name="Rectangle 8848" x="829.48" y="162.43" width="5.57" height="5.57" transform="translate(121.06 627.98) rotate(-44.28)" style="fill: #1a9ce3"/>
    <g id="Barbados" style="isolation: isolate">
      <text transform="translate(781.63 168)" style="isolation: isolate;font-size: 10px;fill: #6e6e72;font-family: OpenSans-Regular">Barbados</text>
    </g>
  </g>
  <g id="cntry-54" data-name="cntry">
    <rect id="Rectangle_8842" data-name="Rectangle 8842" x="603.78" y="231.24" width="5.57" height="5.57" transform="translate(8.91 489.95) rotate(-44.28)" style="fill: #1a9ce3"/>
    <g id="Bahrain" style="isolation: isolate">
      <text transform="translate(570.95 226.49)" style="isolation: isolate;font-size: 10px;fill: #6e6e72;font-family: OpenSans-Regular">Bahrain</text>
    </g>
  </g>
  <g id="cntry-55" data-name="cntry">
    <rect id="Rectangle_8849" data-name="Rectangle 8849" x="853.11" y="161.09" width="5.57" height="5.57" transform="translate(128.71 644.1) rotate(-44.28)" style="fill: #1a9ce3"/>
    <g id="Bahamas" style="isolation: isolate">
      <text transform="translate(854.78 156.35)" style="isolation: isolate;font-size: 10px;fill: #6e6e72;font-family: OpenSans-Regular">Bahamas</text>
    </g>
  </g>
  <g id="cntry-56" data-name="cntry">
    <rect id="Rectangle_8872" data-name="Rectangle 8872" x="545.07" y="279.85" width="5.57" height="5.57" transform="translate(-41.71 462.77) rotate(-44.28)" style="fill: #1a9ce3"/>
    <g id="Azerbaijan" style="isolation: isolate">
      <text transform="translate(499.43 276)" style="isolation: isolate;font-size: 10px;fill: #6e6e72;font-family: OpenSans-Regular">Azerbaijan</text>
    </g>
  </g>
  <g id="cntry-57" data-name="cntry">
    <rect id="Rectangle_8880" data-name="Rectangle 8880" x="734.17" y="262.5" width="5.57" height="5.57" transform="translate(24.12 589.86) rotate(-44.28)" style="fill: #1a9ce3"/>
    <g id="Armenia" style="isolation: isolate">
      <text transform="translate(737.28 257.75)" style="isolation: isolate;font-size: 10px;fill: #6e6e72;font-family: OpenSans-Regular">Armenia</text>
    </g>
  </g>
  <g id="cntry-58" data-name="cntry">
    <rect id="Rectangle_72" data-name="Rectangle 72" x="154.69" y="123.73" width="5.57" height="5.57" transform="translate(-43.6 145.88) rotate(-44.28)" style="fill: #1a9ce3"/>
    <g id="Angola" style="isolation: isolate">
      <text transform="translate(157.38 118.98)" style="isolation: isolate;font-size: 10px;fill: #6e6e72;font-family: OpenSans-Regular">Angola</text>
    </g>
  </g>
  <g id="cntry-59" data-name="cntry">
    <rect id="Rectangle_8873" data-name="Rectangle 8873" x="510" y="337.04" width="5.57" height="5.57" transform="translate(-91.59 454.53) rotate(-44.28)" style="fill: #1a9ce3"/>
    <g id="Vietnam" style="isolation: isolate">
      <text transform="translate(466.69 343)" style="isolation: isolate;font-size: 10px;fill: #6e6e72;font-family: OpenSans-Regular">Vietnam</text>
    </g>
  </g>
  <g id="cntry-60" data-name="cntry">
    <rect id="Rectangle_8836" data-name="Rectangle 8836" x="567.95" y="198.27" width="5.57" height="5.57" transform="translate(21.75 455.57) rotate(-44.28)" style="fill: #1a9ce3"/>
    <g id="Turkey" style="isolation: isolate">
      <text transform="translate(532.17 204)" style="isolation: isolate;font-size: 10px;fill: #6e6e72;font-family: OpenSans-Regular">Turkey</text>
    </g>
  </g>
  <g id="cntry-61" data-name="cntry">
    <rect id="Rectangle_8818" data-name="Rectangle 8818" x="120.38" y="148.13" width="5.57" height="5.57" transform="translate(-70.38 128.85) rotate(-44.28)" style="fill: #1a9ce3"/>
    <g id="Mozambique" style="isolation: isolate">
      <text transform="translate(121.87 143.91)" style="isolation: isolate;font-size: 10px;fill: #6e6e72;font-family: OpenSans-Regular">Mozambique</text>
    </g>
  </g>
  <g id="cntry-62" data-name="cntry">
    <rect id="Rectangle_8881" data-name="Rectangle 8881" x="72.34" y="167.95" width="5.57" height="5.57" transform="translate(-97.86 100.95) rotate(-44.28)" style="fill: #1a9ce3"/>
    <g id="Nigeria" style="isolation: isolate">
      <text transform="translate(73.27 185.56)" style="isolation: isolate;font-size: 10px;fill: #6e6e72;font-family: OpenSans-Regular">Nigeria</text>
    </g>
  </g>
  <g id="cntry-63" data-name="cntry">
    <rect id="Rectangle_8864" data-name="Rectangle 8864" x="651.82" y="418.81" width="5.57" height="5.57" transform="translate(-108.39 576.77) rotate(-44.28)" style="fill: #1a9ce3"/>
    <g id="Kuwait" style="isolation: isolate">
      <text transform="translate(616.53 414.73)" style="isolation: isolate;font-size: 10px;fill: #6e6e72;font-family: OpenSans-Regular">Kuwait</text>
    </g>
  </g>
</svg>
