<svg xmlns="http://www.w3.org/2000/svg" xmlns:xlink="http://www.w3.org/1999/xlink" width="133" height="160" viewBox="0 0 133 160">
  <defs>
    <filter id="Контур_12097" x="0" y="0" width="133" height="160" filterUnits="userSpaceOnUse">
      <feOffset dy="3" input="SourceAlpha"/>
      <feGaussianBlur stdDeviation="3" result="blur"/>
      <feFlood flood-opacity="0.25"/>
      <feComposite operator="in" in2="blur"/>
      <feComposite in="SourceGraphic"/>
    </filter>
  </defs>
  <g id="Сгруппировать_18405" data-name="Сгруппировать 18405" transform="translate(704.264 -1571)">
    <g transform="matrix(1, 0, 0, 1, -704.26, 1571)" filter="url(#Контур_12097)">
      <g id="Контур_12097-2" data-name="Контур 12097" transform="translate(496.14 -1711.98)" fill="#117eba" stroke-linejoin="bevel">
        <path d="M -486.6410217285156 1859.731079101563 L -486.6410217285156 1718.476684570313 C -475.1192016601563 1718.5126953125 -463.8590087890625 1719.790283203125 -453.1665954589844 1722.275268554688 C -442.3858337402344 1724.780883789063 -432.0071105957031 1728.554321289063 -422.3186645507813 1733.490844726563 C -412.6302185058594 1738.427368164063 -403.4769287109375 1744.60595703125 -395.113037109375 1751.855102539063 C -386.8176879882813 1759.044799804688 -379.1654968261719 1767.403564453125 -372.3639221191406 1776.703857421875 L -486.6410217285156 1859.731079101563 Z" stroke="none"/>
        <path d="M -486.1410217285156 1858.749755859375 L -373.0641784667969 1776.594604492188 C -386.6975708007813 1758.071044921875 -403.3410949707031 1743.721557617188 -422.545654296875 1733.936401367188 C -441.750244140625 1724.151123046875 -463.1419067382813 1719.120727539063 -486.1410217285156 1718.97900390625 L -486.1410217285156 1858.749755859375 M -487.1410217285156 1860.71240234375 L -487.1410217285156 1717.975952148438 C -439.8423767089844 1717.975952148438 -399.4667663574219 1738.54833984375 -371.6648864746094 1776.81396484375 L -487.1410217285156 1860.71240234375 Z" stroke="none" fill="#fff"/>
      </g>
    </g>
    <text id="_15_" data-name="15%" transform="translate(-685 1659)" fill="#fff" font-size="30" font-family="OpenSans-Regular"><tspan x="0" y="0">15%</tspan></text>
  </g>
</svg>
